Who’s that
…
```
## # A tibble: 80 × 46
##    id    survey sentence q1_per q1_logit  q1_1  q1_2  q1_3  q1_4  q1_5  q1_6
##    <chr> <chr>  <chr>     <dbl>    <dbl> <dbl> <dbl> <dbl> <dbl> <dbl> <dbl>
##  1 P001  taziji full       0.85    1.73      1     1     1     1     1     1
##  2 P002  taziji full       0.95    2.94      1     1     1     1     1     0
##  3 P003  taziji full       0.65    0.619     1     1     1     0     1     0
##  4 P004  taziji full       0.9     2.20      1     1     1     1     1     1
##  5 P005  taziji full       0.95    2.94      1     1     1     1     1     1
##  6 P006  taziji full       0.7     0.847     1     0     1     1     1     1
##  7 P007  taziji full       0.8     1.39      1     1     1     1     1     1
##  8 P008  taziji full       0.8     1.39      0     1     1     0     1     1
##  9 P009  taziji full       0.8     1.39      0     1     1     1     0     1
## 10 P010  taziji full       0.85    1.73      1     1     1     0     1     1
## # ℹ 70 more rows
## # ℹ 35 more variables: q1_7 <dbl>, q1_8 <dbl>, q1_9 <dbl>, q1_10 <dbl>,
## #   q1_11 <dbl>, q1_12 <dbl>, q1_13 <dbl>, q1_14 <dbl>, q1_15 <dbl>,
## #   q1_16 <dbl>, q1_17 <dbl>, q1_18 <dbl>, q1_19 <dbl>, q1_20 <dbl>,
## #   q2_1 <dbl>, q2_2 <dbl>, q2_3 <dbl>, q2_4 <dbl>, q2_5 <dbl>, q2_6 <dbl>,
## #   q2_7 <dbl>, q2_8 <dbl>, q2_9 <dbl>, q2_10 <dbl>, q2_11 <dbl>, q2_12 <dbl>,
## #   q2_13 <dbl>, q2_14 <dbl>, q2_15 <dbl>, q2_16 <dbl>, q2_17 <dbl>, …
```
…
|term                    |   estimate| std.error| statistic|   p.value|
|:-----------------------|----------:|---------:|---------:|---------:|
|(Intercept)             |  1.3352287| 0.1339521|  9.967957| 0.0000000|
|sentencefull            |  0.4471944| 0.1894369|  2.360651| 0.0208083|
|surveyziji              |  0.2457491| 0.1894369|  1.297261| 0.1984656|
|sentencefull:surveyziji | -0.6910032| 0.2679042| -2.579292| 0.0118312|
---
# 7. The issue
q2_logit is ***infinite***!

```
## # A tibble: 80 × 49
##    id    survey sentence q1_per q1_logit q2_per q2_logit  q1_1  q1_2  q1_3  q1_4
##    <chr> <chr>  <chr>     <dbl>    <dbl>  <dbl>    <dbl> <dbl> <dbl> <dbl> <dbl>
##  1 P001  taziji full       0.85    1.73    0.9      2.20     1     1     1     1
##  2 P002  taziji full       0.95    2.94    0.95     2.94     1     1     1     1
##  3 P003  taziji full       0.65    0.619   0.85     1.73     1     1     1     0
##  4 P004  taziji full       0.9     2.20    1      Inf        1     1     1     1
##  5 P005  taziji full       0.95    2.94    0.9      2.20     1     1     1     1
##  6 P006  taziji full       0.7     0.847   0.95     2.94     1     0     1     1
##  7 P007  taziji full       0.8     1.39    0.9      2.20     1     1     1     1
##  8 P008  taziji full       0.8     1.39    1      Inf        0     1     1     0
##  9 P009  taziji full       0.8     1.39    0.95     2.94     0     1     1     1
## 10 P010  taziji full       0.85    1.73    1      Inf        1     1     1     0
## # ℹ 70 more rows
## # ℹ 38 more variables: q1_5 <dbl>, q1_6 <dbl>, q1_7 <dbl>, q1_8 <dbl>,
## #   q1_9 <dbl>, q1_10 <dbl>, q1_11 <dbl>, q1_12 <dbl>, q1_13 <dbl>,
## #   q1_14 <dbl>, q1_15 <dbl>, q1_16 <dbl>, q1_17 <dbl>, q1_18 <dbl>,
## #   q1_19 <dbl>, q1_20 <dbl>, q2_1 <dbl>, q2_2 <dbl>, q2_3 <dbl>, q2_4 <dbl>,
## #   q2_5 <dbl>, q2_6 <dbl>, q2_7 <dbl>, q2_8 <dbl>, q2_9 <dbl>, q2_10 <dbl>,
## #   q2_11 <dbl>, q2_12 <dbl>, q2_13 <dbl>, q2_14 <dbl>, q2_15 <dbl>, …
```
…
